<?xml version="1.0" encoding="UTF-8" standalone="no"?>
<svg
   xmlns:dc="http://purl.org/dc/elements/1.1/"
   xmlns:cc="http://creativecommons.org/ns#"
   xmlns:rdf="http://www.w3.org/1999/02/22-rdf-syntax-ns#"
   xmlns:svg="http://www.w3.org/2000/svg"
   xmlns="http://www.w3.org/2000/svg"
   xmlns:sodipodi="http://sodipodi.sourceforge.net/DTD/sodipodi-0.dtd"
   xmlns:inkscape="http://www.inkscape.org/namespaces/inkscape"
   version="1.1"
   id="svg1"
   width="16"
   height="16"
   viewBox="0 0 16 16"
   sodipodi:docname="align-on-canvas-symbolic.svg"
   inkscape:version="1.0beta0 (1b5d333, 2019-09-08)">
<style id="s0">
   .base    { fill: #000000; }
   .success { fill: #009909; }
   .warning { fill: #FF1990; }
   .error   { fill: #00AAFF; }
   .dark    {  }
  </style>
  <style id="s2"> 
     @import '../../highlights.css'; 
  </style>
  <defs
     id="defs10" />
  <sodipodi:namedview
     objecttolerance="10"
     gridtolerance="10"
     guidetolerance="10"
     id="namedview"
     showgrid="true"
     inkscape:zoom="19.209395"
     inkscape:cx="11.609506"
     inkscape:cy="9.0016399"
     inkscape:window-x="54"
     inkscape:window-y="-8"
     inkscape:current-layer="layercompo"
     inkscape:window-width="1858"
     inkscape:window-height="1177"
     inkscape:window-maximized="1">
    <inkscape:grid
       type="xygrid"
       id="grid" />
  </sodipodi:namedview>
     
<metadata
     id="metadata1906">
    <rdf:RDF>
      <cc:Work
         rdf:about="">
        <dc:format>image/svg+xml</dc:format>
        <dc:type
           rdf:resource="http://purl.org/dc/dcmitype/StillImage" />
        <cc:license
           rdf:resource="http://creativecommons.org/publicdomain/zero/1.0/" />
        <dc:title>LiveEffect Icons proposal</dc:title>
        <dc:date>13 Jan 2019</dc:date>
        <dc:creator>
          <cc:Agent>
            <dc:title>Ramón Miranda</dc:title>
          </cc:Agent>
        </dc:creator>
        <dc:rights>
          <cc:Agent>
            <dc:title>see the license tab</dc:title>
          </cc:Agent>
        </dc:rights>
        <dc:subject>
          <rdf:Bag>
            <rdf:li>icon ui</rdf:li>
          </rdf:Bag>
        </dc:subject>
        <dc:description>This is a contribution with Inkscape Project from
Ramon Miranda www.ramonmiranda.com (design and SVG file)
Jabiertxo (SVG stuff to integrate them in UI)</dc:description>
        <dc:publisher>
          <cc:Agent>
            <dc:title />
          </cc:Agent>
        </dc:publisher>
        <dc:identifier />
        <dc:source />
        <dc:relation />
        <dc:language>-</dc:language>
        <dc:coverage />
        <dc:contributor>
          <cc:Agent>
            <dc:title>Ramon Miranda
Jabier Arraiza</dc:title>
          </cc:Agent>
        </dc:contributor>
      </cc:Work>
      <cc:License
         rdf:about="http://creativecommons.org/publicdomain/zero/1.0/">
        <cc:permits
           rdf:resource="http://creativecommons.org/ns#Reproduction" />
        <cc:permits
           rdf:resource="http://creativecommons.org/ns#Distribution" />
        <cc:permits
           rdf:resource="http://creativecommons.org/ns#DerivativeWorks" />
      </cc:License>
    </rdf:RDF>
  </metadata>
  <g
     inkscape:groupmode="layer"
     id="layercompo"
     inkscape:label="dashed-stroke">
    <path
       inkscape:connector-curvature="0"
       id="rect22048"
       d="M 0,0 H 16 V 16 H 0 Z"
       style="opacity:0;fill:none" />
    <path
       class="success"
       inkscape:connector-curvature="0"
       d="M 1.0390625,1.078125 V 1.6367188 3.0546875 H 2.1542969 V 2.1933594 H 3.0253906 V 1.078125 Z m 3.4160156,0 V 2.1933594 H 5.8828125 V 1.078125 Z m 2.8574219,0 V 2.1933594 H 8.7402344 V 1.078125 Z m 2.857422,0 v 1.1152344 h 1.429687 V 1.078125 Z m 2.857422,0 v 1.1152344 h 0.871094 v 0.8613281 h 1.115234 V 1.078125 Z M 1.0390625,4.4726562 V 5.890625 H 2.1542969 V 4.4726562 Z m 12.8593755,0 V 5.890625 h 1.115234 V 4.4726562 Z M 1.0390625,7.3105469 V 8.7285156 H 2.1542969 V 7.3105469 Z m 12.8593755,0 v 1.4179687 h 1.115234 V 7.3105469 Z M 1.0390625,10.146484 v 1.417969 h 1.1152344 v -1.417969 z m 12.8593755,0 v 1.417969 h 1.115234 V 10.146484 Z M 1.0390625,12.982422 v 1.976562 H 3.0253906 V 13.84375 H 2.1542969 v -0.861328 z m 12.8593755,0 v 0.861328 h -0.871094 v 1.115234 h 1.986328 V 12.982422 Z M 4.4550781,13.84375 v 1.115234 H 5.8828125 V 13.84375 Z m 2.8574219,0 v 1.115234 H 8.7402344 V 13.84375 Z m 2.857422,0 v 1.115234 h 1.429687 V 13.84375 Z"
       style="opacity:1;fill-opacity:1"
       id="path6" />
    <path
       inkscape:connector-curvature="0"
       id="rect22036"
       d="M -15.767012,-0.42960155 H 0.232996 V 15.570406 h -16.000008 z"
       style="opacity:0;fill:none;"/>
    <path
       inkscape:connector-curvature="0"
       id="rect22038"
       d="M 4.9999984,4.9999878 H 11.000001 V 10.999984 H 4.9999984 Z"
       style="opacity:1;"/>
  </g>
</svg>
