<?xml version="1.0" encoding="UTF-8" standalone="no"?>
<svg
   xmlns:dc="http://purl.org/dc/elements/1.1/"
   xmlns:cc="http://creativecommons.org/ns#"
   xmlns:rdf="http://www.w3.org/1999/02/22-rdf-syntax-ns#"
   xmlns:svg="http://www.w3.org/2000/svg"
   xmlns="http://www.w3.org/2000/svg"
   xmlns:sodipodi="http://sodipodi.sourceforge.net/DTD/sodipodi-0.dtd"
   xmlns:inkscape="http://www.inkscape.org/namespaces/inkscape"
   version="1.1"
   id="svg1"
   width="16"
   height="16"
   viewBox="0 0 16 16"
   sodipodi:docname="distribute-horizontal-right-symbolic.svg"
   inkscape:version="0.92.4 (5da689c313, 2019-01-14)">
<style id="s0">
   .base    { fill: #000000; }
   .success { fill: #009909; }
   .warning { fill: #FF1990; }
   .error   { fill: #00AAFF; }
   .dark    {  }
  </style>
  <style id="s2"> 
     @import '../../highlights.css'; 
  </style>
     
<metadata
     id="metadata3013">
    <rdf:RDF>
      <cc:Work
         rdf:about="">
        <dc:format>image/svg+xml</dc:format>
        <dc:type
           rdf:resource="http://purl.org/dc/dcmitype/StillImage" />
      </cc:Work>
    </rdf:RDF>
  </metadata>
  <defs
     id="defs3011" />
  <sodipodi:namedview
     objecttolerance="10"
     gridtolerance="10"
     guidetolerance="10"
     id="namedview"
     showgrid="true"
     inkscape:zoom="21.991133"
     inkscape:cx="3.9029966"
     inkscape:cy="13.158691"
     inkscape:window-width="1858"
     inkscape:window-height="1177"
     inkscape:window-x="54"
     inkscape:window-y="-8"
     inkscape:window-maximized="1"
     inkscape:current-layer="svg1">
    <inkscape:grid
       type="xygrid"
       id="grid" />
  </sodipodi:namedview>
  <g
     id="distribute-horizontal-left"
     inkscape:label="00279"
     transform="matrix(-0.666667,0,0,0.666655,712.00035,-472.23291)">
    <path
       inkscape:connector-curvature="0"
       style="opacity:1;fill-opacity:0.89019608;"
       d="m 1058.8264,708.36164 v 0.69234 16.61564 0.69234 h 1.5 v -0.69234 -16.61564 -0.69234 z"
       id="use5269"
       class="success"
       sodipodi:nodetypes="ccccccccc" />
    <path
       id="path5265"
       d="m 1045.4995,708.36206 v 0.9231 22.1538 0.9231 h 1.5 v -0.9231 -22.1538 -0.9231 z"
       style="opacity:1;fill-opacity:0.89019608;"
       inkscape:connector-curvature="0"
       class="success"
       sodipodi:nodetypes="ccccccccc" />
    <path
       style="opacity:1"
       d="m 1048.5469,717.41964 v 14.94228 h 5.0012 v -14.94228 z"
       id="rect5326"
       inkscape:connector-curvature="0"
       sodipodi:nodetypes="ccccc" />
    <path
       style="opacity:1;"
       d="m 1061.8597,717.3442 h 3.1329 v 9.01776 h -3.1329 z"
       id="rect5724"
       inkscape:connector-curvature="0"
       sodipodi:nodetypes="ccccc" />
    <path
       style="opacity:0;fill:none"
       d="m 1044,708.36218 h 24 v 24 h -24 z"
       id="rect18537"
       inkscape:connector-curvature="0"
       sodipodi:nodetypes="ccccc" />
    <path
       style="opacity:0.5;"
       d="m 1054.2679,709.11151 2.9795,3.00006 -2.9795,3.00005 v -2.25004 h -0.7617 -1.1836 -0.7617 v 2.25004 l -2.9824,-3.00005 2.9824,-3.00006 v 2.25004 h 0.7617 1.1836 0.7617 z"
       id="path826"
       inkscape:connector-curvature="0"
       sodipodi:nodetypes="ccccccccccccccc" />
  </g>
</svg>
