<?xml version="1.0" encoding="UTF-8" standalone="no"?>
<svg
   xmlns:dc="http://purl.org/dc/elements/1.1/"
   xmlns:cc="http://creativecommons.org/ns#"
   xmlns:rdf="http://www.w3.org/1999/02/22-rdf-syntax-ns#"
   xmlns:svg="http://www.w3.org/2000/svg"
   xmlns="http://www.w3.org/2000/svg"
   xmlns:sodipodi="http://sodipodi.sourceforge.net/DTD/sodipodi-0.dtd"
   xmlns:inkscape="http://www.inkscape.org/namespaces/inkscape"
   version="1.1"
   id="svg1"
   width="16"
   height="16"
   viewBox="0 0 16 16"
   sodipodi:docname="draw-trace-background-symbolic.svg"
   inkscape:version="1.1-dev (1fceb22, 2019-12-30)">
  <style
     id="s0">.base { fill:#000000; }
.success { fill:#009909; }
.warning { fill:#FF1990; }
.error { fill:#00AAFF; }
.dark {  }
</style>
  <style
     id="s2">
@import '../../highlights.css';
</style>
  <metadata
     id="metadata3663">
    <rdf:RDF>
      <cc:Work
         rdf:about="">
        <dc:format>image/svg+xml</dc:format>
        <dc:type
           rdf:resource="http://purl.org/dc/dcmitype/StillImage" />
      </cc:Work>
    </rdf:RDF>
  </metadata>
  <defs
     id="defs3661" />
  <sodipodi:namedview
     objecttolerance="10"
     gridtolerance="10"
     guidetolerance="10"
     id="namedview"
     showgrid="true"
     inkscape:zoom="38.41879"
     inkscape:cx="5.6612457"
     inkscape:cy="7.6481295"
     inkscape:window-width="1858"
     inkscape:window-height="1177"
     inkscape:window-x="54"
     inkscape:window-y="-8"
     inkscape:window-maximized="1"
     inkscape:current-layer="svg1">
    <inkscape:grid
       type="xygrid"
       id="grid" />
  </sodipodi:namedview>
  <g
     transform="matrix(0.99985,0,0,0.99854,-408.93866,-804.18608)"
     id="draw-trace-background"
     inkscape:label="00184">
    <path
       inkscape:connector-curvature="0"
       id="rect20263"
       d="m 409.00079,805.40521 h 15.99918 v 15.95703 h -15.99918 z"
       style="opacity:0;fill:none" />
    <path
       sodipodi:nodetypes="ccccc"
       id="path20286"
       d="m 409.0108,821.3856 15.9912,-0.023 4e-4,-5.7863 c -2.49798,4.33231 -8,4.8097 -16,4.8097 z"
       style="opacity:1"
       inkscape:connector-curvature="0" />
    <path
       class="error"
       sodipodi:nodetypes="ccccc"
       inkscape:connector-curvature="0"
       style="opacity:0.1"
       d="m 409,805.3622 v 15 c 8,0 13.21266,0.0216 16,-4.8125 v -10.1875 z"
       id="rect20284" />
  </g>
</svg>
