<?xml version="1.0" encoding="UTF-8" standalone="no"?>
<svg
   xmlns:dc="http://purl.org/dc/elements/1.1/"
   xmlns:cc="http://creativecommons.org/ns#"
   xmlns:rdf="http://www.w3.org/1999/02/22-rdf-syntax-ns#"
   xmlns:svg="http://www.w3.org/2000/svg"
   xmlns="http://www.w3.org/2000/svg"
   xmlns:sodipodi="http://sodipodi.sourceforge.net/DTD/sodipodi-0.dtd"
   xmlns:inkscape="http://www.inkscape.org/namespaces/inkscape"
   inkscape:version="1.1-dev (1fceb22ce1, 2019-12-30, custom)"
   sodipodi:docname="interpolate-points-symbolic.svg"
   viewBox="0 0 16 16"
   height="16"
   width="16"
   id="svg1"
   version="1.1">
  <defs
     id="defs5002" />
  <style
     id="s0">.base { fill:#000000; }
.success { fill:#009909; }
.warning { fill:#FF1990; }
.error { fill:#00AAFF; }
.dark {  }
</style>
  <style
     id="s2">
@import '../../highlights.css';
</style>
  <sodipodi:namedview
     inkscape:current-layer="layercompo"
     inkscape:window-maximized="1"
     inkscape:window-height="1376"
     inkscape:window-width="2560"
     inkscape:window-y="27"
     inkscape:window-x="0"
     inkscape:cy="8.9538646"
     inkscape:cx="5.9561449"
     inkscape:zoom="27.166187"
     showgrid="true"
     id="namedview"
     guidetolerance="10"
     gridtolerance="10"
     objecttolerance="10">
    <inkscape:grid
       id="grid"
       type="xygrid" />
  </sodipodi:namedview>
  <metadata
     id="metadata1906">
    <rdf:RDF>
      <cc:Work
         rdf:about="">
        <dc:format>image/svg+xml</dc:format>
        <dc:type
           rdf:resource="http://purl.org/dc/dcmitype/StillImage" />
        <cc:license
           rdf:resource="http://creativecommons.org/publicdomain/zero/1.0/" />
        <dc:title></dc:title>
        <dc:date>13 Jan 2019</dc:date>
        <dc:creator>
          <cc:Agent>
            <dc:title>Ramón Miranda</dc:title>
          </cc:Agent>
        </dc:creator>
        <dc:rights>
          <cc:Agent>
            <dc:title>see the license tab</dc:title>
          </cc:Agent>
        </dc:rights>
        <dc:subject>
          <rdf:Bag>
            <rdf:li>icon ui</rdf:li>
          </rdf:Bag>
        </dc:subject>
        <dc:description>This is a contribution with Inkscape Project from
Ramon Miranda www.ramonmiranda.com (design and SVG file)
Jabiertxo (SVG stuff to integrate them in UI)</dc:description>
        <dc:publisher>
          <cc:Agent>
            <dc:title />
          </cc:Agent>
        </dc:publisher>
        <dc:identifier />
        <dc:source />
        <dc:relation />
        <dc:language>-</dc:language>
        <dc:coverage />
        <dc:contributor>
          <cc:Agent>
            <dc:title>Ramon Miranda
Jabier Arraiza</dc:title>
          </cc:Agent>
        </dc:contributor>
      </cc:Work>
      <cc:License
         rdf:about="http://creativecommons.org/publicdomain/zero/1.0/">
        <cc:permits
           rdf:resource="http://creativecommons.org/ns#Reproduction" />
        <cc:permits
           rdf:resource="http://creativecommons.org/ns#Distribution" />
        <cc:permits
           rdf:resource="http://creativecommons.org/ns#DerivativeWorks" />
      </cc:License>
    </rdf:RDF>
  </metadata>
  <g
     inkscape:label="interpolate-points"
     id="layercompo"
     inkscape:groupmode="layer">
    <path
       style="opacity:0;fill:none"
       d="M 0,0 H 16 V 16 H 0 Z"
       id="rect22048" />
    <path
       id="path5008"
       d="m 10.17771,2.237345 v 0.0024 L 9.694204,3 c 0.237855,0.151643 0.589896,0.314008 1.031276,0.523065 0.44114,0.208955 0.95727,0.450972 1.4432,0.70422 0.48595,0.253215 0.94364,0.520916 1.25623,0.758413 0.22739,0.172947 0.33282,0.335992 0.37469,0.388477 -0.007,0.01004 -0.007,0.01241 -0.0263,0.02998 -0.0725,0.06997 -0.21424,0.17222 -0.39878,0.27676 C 13.0054,5.88978 12.47126,6.117438 11.92932,6.347554 11.3874,6.577593 10.83718,6.809334 10.39312,7.0608 10.17085,7.186495 9.973645,7.316094 9.808586,7.475921 9.643768,7.635749 9.486494,7.851646 9.485276,8.143032 c 0,0.287842 0.154595,0.503394 0.31625,0.662863 0.161406,0.15946 0.354224,0.28674 0.571634,0.411778 0.43432,0.250101 0.9726,0.481169 1.50261,0.709925 0.52976,0.228842 1.05075,0.456692 1.41204,0.664752 0.18089,0.10403 0.32014,0.20426 0.39196,0.27484 0.022,0.0229 0.0266,0.0298 0.0346,0.0409 -0.0341,0.0484 -0.12514,0.20304 -0.32892,0.37231 -0.2751,0.22847 -0.68191,0.48833 -1.11599,0.73511 -0.43408,0.2468 -0.8947,0.48397 -1.29056,0.68853 -0.39586,0.20465 -0.71284,0.36269 -0.93244,0.51544 l 0.51394,0.73893 c 0.10371,-0.0718 0.43749,-0.25085 0.83164,-0.45457 0.3944,-0.20382 0.86452,-0.44694 1.32099,-0.70661 0.45673,-0.25967 0.89738,-0.53431 1.24722,-0.82497 0.34985,-0.29069 0.68047,-0.58921 0.67244,-1.08701 -0.01,-0.28661 -0.15947,-0.50005 -0.32185,-0.65951 C 14.14823,10.06622 13.95589,9.936166 13.73775,9.810664 13.30173,9.559531 12.76126,9.329564 12.2315,9.10072 11.70149,8.87197 11.18195,8.644336 10.82238,8.437397 10.64295,8.333981 10.50442,8.233088 10.43456,8.164002 c -0.0122,-0.01265 -0.0122,-0.01265 -0.0194,-0.02092 0.007,-0.0088 0.007,-0.0092 0.0194,-0.02288 0.0728,-0.07083 0.21618,-0.172587 0.40096,-0.277221 0.36957,-0.209157 0.90298,-0.436517 1.44515,-0.666658 0.54194,-0.230117 1.09263,-0.46203 1.53622,-0.713223 0.22178,-0.125624 0.41777,-0.253395 0.58258,-0.413223 0.16458,-0.159828 0.32331,-0.377356 0.32331,-0.669039 0,-0.524644 -0.36689,-0.819279 -0.75471,-1.114077 C 13.58024,3.971928 13.08992,3.692224 12.58207,3.427489 12.07398,3.162756 11.55007,2.915326 11.11039,2.707098 10.67071,2.498776 10.29919,2.316381 10.17601,2.23779 Z"
       style="opacity:1;" />
    <path
       id="path5006"
       d="M 2.336243,1.976773 1.851279,2.735187 5.594894,5.118398 1.259681,7.876754 5.533546,10.64275 2.205021,12.95748 2.718956,13.69592 7.147417,10.61562 2.925897,7.883883 7.269629,5.118398 Z"
       style="opacity:1;" />
    <path
       class="error"
       d="m 7.749236,0.9763178 v 0.060369 0.612924 0.06083 H 8.42361 V 1.649611 1.036687 0.9763178 Z m 0,1.3475772 v 0.06083 0.6129 0.06037 H 8.42361 v -0.06037 -0.6129 -0.06083 z m 0,1.348036 v 0.06083 0.612438 0.06084 H 8.42361 V 4.345199 3.732761 3.671929 Z m 0,1.348043 v 0.06036 0.612925 0.06091 H 8.42361 V 5.69326 5.080336 5.019972 Z m 0,1.347552 V 6.428356 7.04128 7.10211 H 8.42361 V 7.041281 6.428356 6.367524 Z m 0,1.348035 v 0.06083 0.612463 0.06083 H 8.42361 V 8.388852 7.776389 7.71556 Z m 0,1.347575 v 0.06083 0.612926 0.06077 H 8.42361 V 9.73689 9.123967 9.063138 Z m 0,1.348034 v 0.0609 0.61292 0.0603 H 8.42361 v -0.0603 -0.61292 -0.0609 z m 0,1.34804 v 0.0605 0.6129 0.0609 H 8.42361 v -0.0609 -0.6129 -0.0605 z m 0,1.34758 v 0.0609 0.6129 0.0609 H 8.42361 v -0.0609 -0.6129 -0.0609 z m 0,1.34803 v 0.0608 0.61292 0.0603 H 8.42361 v -0.0603 -0.61292 -0.0608 z"
       style="opacity:1"
       id="path9609" />
  </g>
</svg>
