<?xml version="1.0" encoding="UTF-8" standalone="no"?>
<svg
   xmlns:dc="http://purl.org/dc/elements/1.1/"
   xmlns:cc="http://creativecommons.org/ns#"
   xmlns:rdf="http://www.w3.org/1999/02/22-rdf-syntax-ns#"
   xmlns:svg="http://www.w3.org/2000/svg"
   xmlns="http://www.w3.org/2000/svg"
   xmlns:sodipodi="http://sodipodi.sourceforge.net/DTD/sodipodi-0.dtd"
   xmlns:inkscape="http://www.inkscape.org/namespaces/inkscape"
   inkscape:version="1.1-dev (6039630, 2019-12-20)"
   sodipodi:docname="layer-bottom-symbolic.svg"
   viewBox="0 0 16 16"
   height="16"
   width="16"
   id="svg1"
   version="1.1">
  <metadata
     id="metadata2899">
    <rdf:RDF>
      <cc:Work
         rdf:about="">
        <dc:format>image/svg+xml</dc:format>
        <dc:type
           rdf:resource="http://purl.org/dc/dcmitype/StillImage" />
      </cc:Work>
    </rdf:RDF>
  </metadata>
  <defs
     id="defs2897" />
  <style
     id="s0">.base { fill:#000000; }
.success { fill:#009909; }
.warning { fill:#FF1990; }
.error { fill:#00AAFF; }
.dark {  }
</style>
  <style
     id="s2">
@import '../../highlights.css';
</style>
  <sodipodi:namedview
     inkscape:current-layer="svg1"
     inkscape:window-maximized="1"
     inkscape:window-y="-6"
     inkscape:window-x="65"
     inkscape:window-height="890"
     inkscape:window-width="1296"
     inkscape:cy="8"
     inkscape:cx="8"
     inkscape:zoom="43.25"
     showgrid="true"
     id="namedview"
     guidetolerance="10"
     gridtolerance="10"
     objecttolerance="10">
    <inkscape:grid
       id="grid"
       type="xygrid" />
  </sodipodi:namedview>
  <g
     id="layer-bottom"
     inkscape:label="00051"
     transform="matrix(1,0,0,0.999999,-105,-707.3613)">
    <path
       transform="scale(1,-1)"
       style="opacity:0;fill:none"
       d="m 106,-723.36218 h 14 c 0.554,0 1,0.446 1,1 v 14 c 0,0.554 -0.446,1 -1,1 h -14 c -0.554,0 -1,-0.446 -1,-1 v -14 c 0,-0.554 0.446,-1 1,-1 z"
       id="rect19800"
       inkscape:connector-curvature="0" />
    <path
       style="opacity:0.5"
       d="m 117,714.3622 1,-1 2,-2 h -5 v 1 1 1 z m -6,0 v -1 -1 -1 h -2 l -3,3 z"
       id="path19802"
       inkscape:connector-curvature="0" />
    <path
       inkscape:connector-curvature="0"
       id="path19804"
       d="m 120,720.3622 -3,3 h -11 l 3,-3 z"
       style="opacity:1" />
    <path
       class="success"
       style="opacity:1"
       d="m 112,709.3622 h 2 v 7 h 2 l -3,2.9883 -3,-2.9883 h 2 z"
       id="path19806"
       inkscape:connector-curvature="0" />
    <path
       style="opacity:0.5"
       d="m 117,710.3622 3,-3 h -11 l -3,3 h 5 v -2 h 4 v 2 z"
       id="path19808"
       inkscape:connector-curvature="0" />
  </g>
</svg>
