<?xml version="1.0" encoding="UTF-8" standalone="no"?>
<svg
   xmlns:dc="http://purl.org/dc/elements/1.1/"
   xmlns:cc="http://creativecommons.org/ns#"
   xmlns:rdf="http://www.w3.org/1999/02/22-rdf-syntax-ns#"
   xmlns:svg="http://www.w3.org/2000/svg"
   xmlns="http://www.w3.org/2000/svg"
   xmlns:sodipodi="http://sodipodi.sourceforge.net/DTD/sodipodi-0.dtd"
   xmlns:inkscape="http://www.inkscape.org/namespaces/inkscape"
   inkscape:version="1.1-dev (6039630, 2019-12-20)"
   sodipodi:docname="object-ungroup-pop-selection-symbolic.svg"
   version="1.1"
   height="14.345885"
   width="13.8222"
   id="svg1">
  <style
     id="s0">
.base { fill:#000000; }
.success { fill:#009909; }
.warning { fill:#FF1990; }
.error { fill:#00AAFF; }
.dark { }
</style>
  <style
     id="s2">
@import '../../highlights.css';
</style>
  <metadata
     id="metadata31">
    <rdf:RDF>
      <cc:Work
         rdf:about="">
        <dc:format>image/svg+xml</dc:format>
        <dc:type
           rdf:resource="http://purl.org/dc/dcmitype/StillImage" />
      </cc:Work>
    </rdf:RDF>
  </metadata>
  <sodipodi:namedview
     inkscape:current-layer="svg1"
     inkscape:window-maximized="1"
     inkscape:window-y="-6"
     inkscape:window-x="65"
     inkscape:window-height="890"
     inkscape:window-width="1296"
     inkscape:cy="7.1729426"
     inkscape:cx="6.9110999"
     inkscape:zoom="45.86681"
     showgrid="true"
     id="base">
    <inkscape:grid
       empspacing="5"
       empopacity="0.38"
       opacity="0.15"
       empcolor="#3f3fff"
       color="#3f3fff"
       spacingy="1pt"
       spacingx="1pt"
       originy="0pt"
       originx="0pt"
       type="xygrid"
       id="GridFromPre046Settings" />
  </sodipodi:namedview>
  <defs
     id="defs3">
    <linearGradient
       id="linearGradient5704">
      <stop
         style="stop-color:#5a5a5a;stop-opacity:1"
         offset="0"
         id="stop5706" />
      <stop
         style="stop-color:#000000;stop-opacity:1"
         offset="1"
         id="stop5708" />
    </linearGradient>
    <linearGradient
       id="linearGradient24464">
      <stop
         style="stop-color:#499204;stop-opacity:1"
         offset="0"
         id="stop24466" />
      <stop
         style="stop-color:#a7e26e;stop-opacity:1"
         offset="1"
         id="stop24468" />
    </linearGradient>
    <linearGradient
       id="linearGradient5740">
      <stop
         style="stop-color:#ffffff;stop-opacity:1"
         offset="0"
         id="stop5742" />
      <stop
         style="stop-color:#98b6d3;stop-opacity:1"
         offset="1"
         id="stop5744" />
    </linearGradient>
  </defs>
  <g
     transform="translate(-355.5,-252.15412)"
     inkscape:label="#object-ungroup-pop-selection"
     id="object-ungroup-pop-selection">
    <g
       id="g6068-8">
      <path
         inkscape:connector-curvature="0"
         id="rect9496-1"
         d="m 356,258.5 a 0.50005,0.50005 0 0 0 -0.5,0.5 v 7 a 0.50005,0.50005 0 0 0 0.5,0.5 h 9 a 0.50005,0.50005 0 0 0 0.5,-0.5 v -7 a 0.50005,0.50005 0 0 0 -0.5,-0.5 z m 0.5,1 h 8 v 6 h -8 z"
         style="color:#000000;font-style:normal;font-variant:normal;font-weight:normal;font-stretch:normal;font-size:medium;line-height:normal;font-family:sans-serif;font-variant-ligatures:normal;font-variant-position:normal;font-variant-caps:normal;font-variant-numeric:normal;font-variant-alternates:normal;font-feature-settings:normal;text-indent:0;text-align:start;text-decoration:none;text-decoration-line:none;text-decoration-style:solid;text-decoration-color:#000000;letter-spacing:normal;word-spacing:normal;text-transform:none;writing-mode:lr-tb;direction:ltr;text-orientation:mixed;dominant-baseline:auto;baseline-shift:baseline;text-anchor:start;white-space:normal;shape-padding:0;clip-rule:nonzero;display:inline;overflow:visible;visibility:visible;opacity:0.36;isolation:auto;mix-blend-mode:normal;color-interpolation:sRGB;color-interpolation-filters:linearRGB;solid-color:#000000;solid-opacity:1;vector-effect:none;fill-opacity:1;fill-rule:nonzero;stroke:none;stroke-width:1;stroke-linecap:butt;stroke-linejoin:round;stroke-miterlimit:0;stroke-dasharray:none;stroke-dashoffset:0;stroke-opacity:1;color-rendering:auto;image-rendering:auto;shape-rendering:auto;text-rendering:auto;enable-background:accumulate" />
    </g>
    <path
       inkscape:connector-curvature="0"
       id="use8598-1"
       transform="translate(355.5,252.1541)"
       d="m 2.822266,0 v 2 h 2 V 0 Z m 9.000004,0 v 2 h 2 V 0 Z M 8.326172,1 c -2.481,0 -4.503906,2.023712 -4.503906,4.507812 0,2.484 2.022906,4.507808 4.503906,4.507808 2.481098,0 4.501948,-2.023807 4.501948,-4.507808 C 12.82812,3.023712 10.80727,1 8.326172,1 Z m 0,1 c 1.940898,0 3.503908,1.564513 3.503908,3.507812 0,1.9432 -1.56301,3.509766 -3.503908,3.509766 -1.9408,0 -3.50586,-1.566565 -3.50586,-3.509766 C 4.820312,3.564513 6.385372,2 8.326172,2 Z M 11.5,8.845703 V 10.8457 h 2 V 8.845703 Z M 2.822266,9 v 2 h 2 V 9 Z"
       style="color:#000000;fill:#000000;fill-rule:evenodd;stroke-width:1" />
    <g
       transform="translate(-0.0348992,-0.0284392)"
       id="use10425-1" />
  </g>
</svg>
