<?xml version="1.0" encoding="UTF-8" standalone="no"?>
<svg
   xmlns:dc="http://purl.org/dc/elements/1.1/"
   xmlns:cc="http://creativecommons.org/ns#"
   xmlns:rdf="http://www.w3.org/1999/02/22-rdf-syntax-ns#"
   xmlns:svg="http://www.w3.org/2000/svg"
   xmlns="http://www.w3.org/2000/svg"
   xmlns:sodipodi="http://sodipodi.sourceforge.net/DTD/sodipodi-0.dtd"
   xmlns:inkscape="http://www.inkscape.org/namespaces/inkscape"
   inkscape:version="1.0beta0 (1d85f8e, 2019-09-11)"
   sodipodi:docname="snap-text-baseline-symbolic.svg"
   viewBox="0 0 16 16"
   height="16"
   width="16"
   id="svg1"
   version="1.1">
<style id="s0">
   .base    { fill: #000000; }
   .success { fill: #009909; }
   .warning { fill: #FF1990; }
   .error   { fill: #00AAFF; }
   .dark    {  }
  </style>
  <style id="s2"> 
     @import '../../highlights.css'; 
  </style>
   
  <metadata
     id="metadata942">
    <rdf:RDF>
      <cc:Work
         rdf:about="">
        <dc:format>image/svg+xml</dc:format>
        <dc:type
           rdf:resource="http://purl.org/dc/dcmitype/StillImage" />
      </cc:Work>
    </rdf:RDF>
  </metadata>
  <defs
     id="defs940" />
  <sodipodi:namedview
     inkscape:current-layer="g948"
     inkscape:window-maximized="1"
     inkscape:window-y="-8"
     inkscape:window-x="54"
     inkscape:window-height="1177"
     inkscape:window-width="1858"
     inkscape:cy="10.7691"
     inkscape:cx="13.136866"
     inkscape:zoom="22.4"
     showgrid="true"
     id="namedview"
     guidetolerance="10"
     gridtolerance="10"
     objecttolerance="10">
    <inkscape:grid
       id="grid"
       type="xygrid" />
  </sodipodi:namedview>
  <g
     inkscape:label="00333"
     id="snap-text-baseline">
    <path
       style="opacity:0;fill:none"
       d="M 0,0 H 16 V 16 H 0 Z"
       id="rect48147"
       inkscape:connector-curvature="0" />
    <g
       id="g948">
      <path
         class="success"
         inkscape:connector-curvature="0"
         id="rect48149"
         d="m 8.9601545,4.717515 h 4.0000005 v 4 H 8.9601545 Z"
         style="opacity:1"
         transform="rotate(45)" />
      <path
         class="success"
         inkscape:connector-curvature="0"
         id="path48151"
         d="m 2,12 v 1 h 14 v -1 z"
         style="opacity:1;stroke-linecap:butt" />
    </g>
    <path
       style="opacity:1"
       inkscape:connector-curvature="0"
       id="path48153"
       d="M 12.45613,8.995981 H 8.020766 L 7.320835,11 H 4.469525 L 8.543871,0 H 11.92566 L 16,11 H 13.1487 Z M 8.728066,6.955127 H 11.74146 L 10.23844,2.578699 Z" />
  </g>
</svg>
