<?xml version="1.0" encoding="UTF-8" standalone="no"?>
<svg
   xmlns:dc="http://purl.org/dc/elements/1.1/"
   xmlns:cc="http://creativecommons.org/ns#"
   xmlns:rdf="http://www.w3.org/1999/02/22-rdf-syntax-ns#"
   xmlns:svg="http://www.w3.org/2000/svg"
   xmlns="http://www.w3.org/2000/svg"
   xmlns:sodipodi="http://sodipodi.sourceforge.net/DTD/sodipodi-0.dtd"
   xmlns:inkscape="http://www.inkscape.org/namespaces/inkscape"
   inkscape:version="1.1-dev (6039630, 2019-12-20)"
   sodipodi:docname="transform-affect-stroke-symbolic.svg"
   viewBox="0 0 16 16"
   height="16"
   width="16"
   id="svg1"
   version="1.1">
  <metadata
     id="metadata1766">
    <rdf:RDF>
      <cc:Work
         rdf:about="">
        <dc:format>image/svg+xml</dc:format>
        <dc:type
           rdf:resource="http://purl.org/dc/dcmitype/StillImage" />
      </cc:Work>
    </rdf:RDF>
  </metadata>
  <defs
     id="defs1764" />
  <style
     id="s0">
.base { fill:#000000; }
.success { fill:#009909; }
.warning { fill:#FF1990; }
.error { fill:#00AAFF; }
.dark { }
</style>
  <style
     id="s2">
@import '../../highlights.css';
</style>
  <sodipodi:namedview
     inkscape:current-layer="svg1"
     inkscape:window-maximized="1"
     inkscape:window-y="-6"
     inkscape:window-x="65"
     inkscape:window-height="890"
     inkscape:window-width="1296"
     inkscape:cy="8"
     inkscape:cx="8"
     inkscape:zoom="41.125"
     showgrid="true"
     id="namedview"
     guidetolerance="10"
     gridtolerance="10"
     objecttolerance="10">
    <inkscape:grid
       id="grid"
       type="xygrid" />
  </sodipodi:namedview>
  <g
     id="transform-affect-stroke"
     inkscape:label="00157"
     transform="matrix(1,0,0,0.999999,-348,-527.36152)">
    <path
       style="opacity:0;fill:none"
       d="m 348,527.36218 h 16 v 16 h -16 z"
       id="rect30527"
       inkscape:connector-curvature="0" />
    <path
       style="opacity:1"
       d="m 350,528.3622 v 2 h 1.323 8.677 v 4 1 h 2 v -2 -4 -1 h -1.4622 -9.6178 z"
       id="path5760"
       inkscape:connector-curvature="0" />
    <path
       inkscape:connector-curvature="0"
       id="path5762"
       d="m 350,532.3622 v 1 h 0.5 6.5 v 1.5 0.5 h 1 v -0.5 -2 -0.5 h -0.5 -7 z"
       style="opacity:1" />
    <path
       style="opacity:1"
       d="m 353,539.342 v 2.0202 h 2 v -2.0202 z"
       id="path5770"
       inkscape:connector-curvature="0" />
    <path
       style="opacity:1"
       d="m 356,541.3622 v -2 h 3 v -2 l 2.9883,3 -2.9883,3 v -2 z"
       id="path30562"
       inkscape:connector-curvature="0" />
    <path
       inkscape:connector-curvature="0"
       id="path30570"
       d="m 350,539.3622 v 2.0201 h 2 v -2.0201 z"
       style="opacity:1" />
  </g>
</svg>
