<?xml version="1.0" encoding="UTF-8" standalone="no"?>
<svg
   xmlns:dc="http://purl.org/dc/elements/1.1/"
   xmlns:cc="http://creativecommons.org/ns#"
   xmlns:rdf="http://www.w3.org/1999/02/22-rdf-syntax-ns#"
   xmlns:svg="http://www.w3.org/2000/svg"
   xmlns="http://www.w3.org/2000/svg"
   xmlns:sodipodi="http://sodipodi.sourceforge.net/DTD/sodipodi-0.dtd"
   xmlns:inkscape="http://www.inkscape.org/namespaces/inkscape"
   inkscape:version="1.1-dev (6039630, 2019-12-20)"
   sodipodi:docname="xml-attribute-delete-symbolic.svg"
   viewBox="0 0 16 16"
   height="16"
   width="16"
   id="svg1"
   version="1.1">
  <metadata
     id="metadata1568">
    <rdf:RDF>
      <cc:Work
         rdf:about="">
        <dc:format>image/svg+xml</dc:format>
        <dc:type
           rdf:resource="http://purl.org/dc/dcmitype/StillImage" />
      </cc:Work>
    </rdf:RDF>
  </metadata>
  <defs
     id="defs1566" />
  <style
     id="s0">.base { fill:#000000; }
.success { fill:#009909; }
.warning { fill:#FF1990; }
.error { fill:#00AAFF; }
.dark {  }
</style>
  <style
     id="s2">
@import '../../highlights.css';
</style>
  <sodipodi:namedview
     inkscape:current-layer="xml-attribute-delete"
     inkscape:window-maximized="1"
     inkscape:window-y="-6"
     inkscape:window-x="65"
     inkscape:window-height="890"
     inkscape:window-width="1296"
     inkscape:cy="10.157257"
     inkscape:cx="10.529774"
     inkscape:zoom="27.166187"
     showgrid="true"
     id="namedview"
     guidetolerance="10"
     gridtolerance="10"
     objecttolerance="10">
    <inkscape:grid
       id="grid"
       type="xygrid" />
  </sodipodi:namedview>
  <g
     id="xml-attribute-delete"
     inkscape:label="00266"
     transform="matrix(0.666667,0,0,0.666667,-797.33333,-371.57479)">
    <path
       style="opacity:0;fill:none"
       d="m 1196,557.36218 h 24 v 24 h -24 z"
       id="rect21940"
       inkscape:connector-curvature="0" />
    <path
       style="opacity:1"
       d="m 1196,557.36218 h 1 v 24 h -1 z"
       id="rect21942"
       inkscape:connector-curvature="0" />
    <path
       style="opacity:1"
       d="m 1196,557.36218 h 24 v 1 h -24 z"
       id="rect21944"
       inkscape:connector-curvature="0" />
    <path
       style="opacity:1"
       d="m 1196,580.36218 h 24 v 1 h -24 z"
       id="rect21946"
       inkscape:connector-curvature="0" />
    <path
       style="opacity:1"
       d="m 1219,557.36218 h 1 v 24 h -1 z"
       id="rect21948"
       inkscape:connector-curvature="0" />
    <path
       inkscape:connector-curvature="0"
       id="rect21982"
       transform="translate(0,512.3622)"
       d="m 1199,47 v 3 h 3 v -3 z m 1,1 h 1 v 1 h -1 z"
       style="opacity:1" />
    <path
       style="opacity:1"
       d="m 1200,562.36218 h 1 v 8.00001 h -1 z"
       id="rect21986"
       inkscape:connector-curvature="0" />
    <path
       style="opacity:1"
       d="m 1201,565.36218 h 6 v 1 h -6 z"
       id="rect21988"
       inkscape:connector-curvature="0" />
    <path
       style="opacity:1"
       d="m 1200,570.36218 h 7 v 1 h -7 z"
       id="rect21990"
       inkscape:connector-curvature="0" />
    <path
       id="rect21992"
       transform="translate(0,512.3622)"
       d="m 1207,51 v 4 h 10 v -4 z m 1,1 h 8 v 2 h -8 z"
       style="opacity:1"
       inkscape:connector-curvature="0" />
    <path
       id="rect21994"
       transform="translate(0,512.3622)"
       d="m 1207,56 v 4 h 10 v -4 z m 1,1 h 8 v 2 h -8 z"
       style="opacity:1"
       inkscape:connector-curvature="0" />
    <path
       inkscape:connector-curvature="0"
       class="warning"
       d="m 1212.7567,574.11925 4.2427,4.24265 -1.0607,1.06066 -4.2427,-4.24265 z"
       style="opacity:1;fill:#ff1990;stroke-width:4.59885;stroke-linecap:round"
       id="rect4471" />
    <path
       id="rect4471-3"
       style="opacity:1;fill:#ff1990;stroke-width:4.59885;stroke-linecap:round"
       d="m 1215.9387,574.11926 -4.2427,4.24264 1.0607,1.06066 4.2427,-4.24264 z"
       class="warning"
       inkscape:connector-curvature="0" />
  </g>
</svg>
